ACCT420 Forecasting and Forensic Analytics (FFA)
…
1.2 Loading Data

#u may need to change the directory
banks <- readRDS("C:/Users/Ryan Goh/Desktop/FFA-13 PROJECT GROUP2/finalised_data/banks_cleaned_with_aaer.rds")
banks

# A tibble: 37,662 × 37
    year code   ITEM6001         ITEM6010 ITEM7240 ITEM19109 ITEM19110 ITEM19111
   <dbl> <chr>  <chr>            <chr>       <dbl>     <dbl>     <dbl>     <dbl>
 1  2004 100008 ASYA KATILIM BA… 4          2.32e8 11645627. 28230316.   -4.41e7
 2  2005 100008 ASYA KATILIM BA… 4          3.48e8 11645627. 28230316.   -4.41e7
 3  2006 100008 ASYA KATILIM BA… 4          5.49e8 11645627. 35429528.   -4.41e7
 4  2007 100008 ASYA KATILIM BA… 4          8.71e8 11645627. 68365639.   -4.41e7
 5  2008 100008 ASYA KATILIM BA… 4          1.18e9 11645627. 68687944    -4.41e7
 6  2009 100008 ASYA KATILIM BA… 4          1.19e9 11645627. 85235280    -4.41e7
 7  2010 100008 ASYA KATILIM BA… 4          1.11e9 11645627. 74099609.   -4.41e7
 8  2011 100008 ASYA KATILIM BA… 4          1.05e9 11645627. 63659356    -4.41e7
 9  2012 100008 ASYA KATILIM BA… 4          1.25e9 11645627. 25748490.    2.69e7
10  2013 100008 ASYA KATILIM BA… 4          1.34e9 20986304. 29170478.    3.26e7
# ℹ 37,652 more rows
# ℹ 29 more variables: ITEM19112 <dbl>, ITEM8236 <dbl>, ITEM8301 <dbl>,
#   ITEM3255 <dbl>, ITEM3999 <dbl>, ITEM8231 <dbl>, ITEM8381 <dbl>,
#   ITEM8311 <dbl>, ITEM8316 <dbl>, ITEM8906 <dbl>, ITEM8361 <dbl>,
#   ITEM15025 <dbl>, ITEM15061 <dbl>, ITEM15073 <dbl>, ITEM15156 <dbl>,
#   ITEM15173 <dbl>, ITEM7546 <fct>, ITEM9104 <dbl>, ITEM9304 <dbl>,
#   ITEM3998 <dbl>, ITEM18156 <dbl>, ITEM3995 <dbl>, ITEM2004 <dbl>, …
…
banks %>% profile_missing() 

# A tibble: 37 × 3
   feature   num_missing pct_missing
   <fct>           <int>       <dbl>
 1 year                0           0
 2 code                0           0
 3 ITEM6001            0           0
 4 ITEM6010            0           0
 5 ITEM7240            0           0
 6 ITEM19109           0           0
 7 ITEM19110           0           0
 8 ITEM19111           0           0
 9 ITEM19112           0           0
10 ITEM8236            0           0
# ℹ 27 more rows
…
# Remove Items 19109-19112
banks <- subset(banks, select = -c(ITEM19109,ITEM19110,ITEM19111,ITEM19112,cash_to_deposits_ratio,code,ITEM6001,ITEM6010))
banks

# A tibble: 37,662 × 30
    year ITEM7240 ITEM8236 ITEM8301 ITEM3255 ITEM3999 ITEM8231 ITEM8381 ITEM8311
   <dbl>    <dbl>    <dbl>    <dbl>    <dbl>    <dbl>    <dbl>    <dbl>    <dbl>
 1  2004     232.    1.57     13.3      22.3    1418.    19.0     30.3     31.0 
 2  2005     348.    0.814    37.5      15.8    1944.     7.20    64.4     31.2 
 3  2006     549.    8.42     32.9     107.     3015.    23.0     56.0     34.8 
 4  2007     871.    5.24     24.9     281.     5357.    39.0     53.0     36.0 
 5  2008    1181.    5.70     21.4     301.     5282.    33.7     15.5     10.6 
 6  2009    1186.    8.42     17.4     129.     7642.    11.8     31.5     26.5 
 7  2010    1111.    8.42     13.3     431.     9228.    36.0     18.1     18.6 
 8  2011    1055.   11.1      10.1     999.     8980.    93.1      4.34     4.67
 9  2012    1248.    9.20      7.11   1080.    11748.    88.4     37.3     34.3 
10  2013    1339.   18.6       7.72   2417.    12988.   207.      32.0     28.6 
# ℹ 37,652 more rows
# ℹ 21 more variables: ITEM8316 <dbl>, ITEM8906 <dbl>, ITEM8361 <dbl>,
#   ITEM15025 <dbl>, ITEM15061 <dbl>, ITEM15073 <dbl>, ITEM15156 <dbl>,
#   ITEM15173 <dbl>, ITEM7546 <fct>, ITEM9104 <dbl>, ITEM9304 <dbl>,
#   ITEM3998 <dbl>, ITEM18156 <dbl>, ITEM3995 <dbl>, ITEM2004 <dbl>,
#   ITEM3019 <dbl>, big4_auditor <fct>, leverage_ratio <dbl>,
#   total_capital_adequacy_ratio <dbl>, AAER <fct>, net_profit_margin <dbl>
…
# Remove the rows with infinite values
banks <- banks[!is.infinite(banks$leverage_ratio),]
banks

# A tibble: 37,657 × 30
    year ITEM7240 ITEM8236 ITEM8301 ITEM3255 ITEM3999 ITEM8231 ITEM8381 ITEM8311
   <dbl>    <dbl>    <dbl>    <dbl>    <dbl>    <dbl>    <dbl>    <dbl>    <dbl>
 1  2004     232.    1.57     13.3      22.3    1418.    19.0     30.3     31.0 
 2  2005     348.    0.814    37.5      15.8    1944.     7.20    64.4     31.2 
 3  2006     549.    8.42     32.9     107.     3015.    23.0     56.0     34.8 
 4  2007     871.    5.24     24.9     281.     5357.    39.0     53.0     36.0 
 5  2008    1181.    5.70     21.4     301.     5282.    33.7     15.5     10.6 
 6  2009    1186.    8.42     17.4     129.     7642.    11.8     31.5     26.5 
 7  2010    1111.    8.42     13.3     431.     9228.    36.0     18.1     18.6 
 8  2011    1055.   11.1      10.1     999.     8980.    93.1      4.34     4.67
 9  2012    1248.    9.20      7.11   1080.    11748.    88.4     37.3     34.3 
10  2013    1339.   18.6       7.72   2417.    12988.   207.      32.0     28.6 
# ℹ 37,647 more rows
# ℹ 21 more variables: ITEM8316 <dbl>, ITEM8906 <dbl>, ITEM8361 <dbl>,
#   ITEM15025 <dbl>, ITEM15061 <dbl>, ITEM15073 <dbl>, ITEM15156 <dbl>,
#   ITEM15173 <dbl>, ITEM7546 <fct>, ITEM9104 <dbl>, ITEM9304 <dbl>,
#   ITEM3998 <dbl>, ITEM18156 <dbl>, ITEM3995 <dbl>, ITEM2004 <dbl>,
#   ITEM3019 <dbl>, big4_auditor <fct>, leverage_ratio <dbl>,
#   total_capital_adequacy_ratio <dbl>, AAER <fct>, net_profit_margin <dbl>
…
          if (abs(skew) > skew_threshold) {
             transformed_data[[col]] <- log(data[[col]])
      }
    }
  return(transformed_data)
  }

1.3.4 Run Skewness Check & Log function on the dataset

banks <- check_and_log_transform(banks,1)
banks

# A tibble: 37,657 × 30
    year ITEM7240 ITEM8236 ITEM8301 ITEM3255 ITEM3999 ITEM8231 ITEM8381 ITEM8311
   <dbl>    <dbl>    <dbl>    <dbl>    <dbl>    <dbl>    <dbl>    <dbl>    <dbl>
 1  2004     5.45    0.451     2.58     3.10     7.26     2.94     3.41     3.43
 2  2005     5.85   -0.206     3.62     2.76     7.57     1.97     4.16     3.44
 3  2006     6.31    2.13      3.49     4.67     8.01     3.14     4.03     3.55
 4  2007     6.77    1.66      3.22     5.64     8.59     3.66     3.97     3.58
 5  2008     7.07    1.74      3.07     5.71     8.57     3.52     2.74     2.36
 6  2009     7.08    2.13      2.86     4.86     8.94     2.47     3.45     3.28
 7  2010     7.01    2.13      2.59     6.07     9.13     3.58     2.89     2.92
 8  2011     6.96    2.41      2.31     6.91     9.10     4.53     1.47     1.54
 9  2012     7.13    2.22      1.96     6.99     9.37     4.48     3.62     3.54
10  2013     7.20    2.92      2.04     7.79     9.47     5.33     3.47     3.35
# ℹ 37,647 more rows
# ℹ 21 more variables: ITEM8316 <dbl>, ITEM8906 <dbl>, ITEM8361 <dbl>,
#   ITEM15025 <dbl>, ITEM15061 <dbl>, ITEM15073 <dbl>, ITEM15156 <dbl>,
#   ITEM15173 <dbl>, ITEM7546 <fct>, ITEM9104 <dbl>, ITEM9304 <dbl>,
#   ITEM3998 <dbl>, ITEM18156 <dbl>, ITEM3995 <dbl>, ITEM2004 <dbl>,
#   ITEM3019 <dbl>, big4_auditor <fct>, leverage_ratio <dbl>,
#   total_capital_adequacy_ratio <dbl>, AAER <fct>, net_profit_margin <dbl>

1.3.5 Replacing all remaining NA values with the Absolute Mean

# Replace the NA values of hrswork with the mean of the remaining values
for (col in numeric_columns) {
  banks[[col]][is.na(banks[[col]])] <- round(mean(banks[[col]], na.rm = TRUE)) 
}

# See the results
banks

# A tibble: 37,657 × 30
    year ITEM7240 ITEM8236 ITEM8301 ITEM3255 ITEM3999 ITEM8231 ITEM8381 ITEM8311
   <dbl>    <dbl>    <dbl>    <dbl>    <dbl>    <dbl>    <dbl>    <dbl>    <dbl>
 1  2004     5.45    0.451     2.58     3.10     7.26     2.94     3.41     3.43
 2  2005     5.85   -0.206     3.62     2.76     7.57     1.97     4.16     3.44
 3  2006     6.31    2.13      3.49     4.67     8.01     3.14     4.03     3.55
 4  2007     6.77    1.66      3.22     5.64     8.59     3.66     3.97     3.58
 5  2008     7.07    1.74      3.07     5.71     8.57     3.52     2.74     2.36
 6  2009     7.08    2.13      2.86     4.86     8.94     2.47     3.45     3.28
 7  2010     7.01    2.13      2.59     6.07     9.13     3.58     2.89     2.92
 8  2011     6.96    2.41      2.31     6.91     9.10     4.53     1.47     1.54
 9  2012     7.13    2.22      1.96     6.99     9.37     4.48     3.62     3.54
10  2013     7.20    2.92      2.04     7.79     9.47     5.33     3.47     3.35
# ℹ 37,647 more rows
# ℹ 21 more variables: ITEM8316 <dbl>, ITEM8906 <dbl>, ITEM8361 <dbl>,
#   ITEM15025 <dbl>, ITEM15061 <dbl>, ITEM15073 <dbl>, ITEM15156 <dbl>,
#   ITEM15173 <dbl>, ITEM7546 <fct>, ITEM9104 <dbl>, ITEM9304 <dbl>,
#   ITEM3998 <dbl>, ITEM18156 <dbl>, ITEM3995 <dbl>, ITEM2004 <dbl>,
#   ITEM3019 <dbl>, big4_auditor <fct>, leverage_ratio <dbl>,
#   total_capital_adequacy_ratio <dbl>, AAER <fct>, net_profit_margin <dbl>

1.3.6 Removing all Infinite Values after the log transformation

for (col in numeric_columns){
   banks <- banks[!is.infinite(banks[[col]]),]
}
banks 

# A tibble: 19,330 × 30
    year ITEM7240 ITEM8236 ITEM8301 ITEM3255 ITEM3999 ITEM8231 ITEM8381 ITEM8311
   <dbl>    <dbl>    <dbl>    <dbl>    <dbl>    <dbl>    <dbl>    <dbl>    <dbl>
 1  2004     5.45    0.451     2.58     3.10     7.26     2.94     3.41     3.43
 2  2005     5.85   -0.206     3.62     2.76     7.57     1.97     4.16     3.44
 3  2006     6.31    2.13      3.49     4.67     8.01     3.14     4.03     3.55
 4  2007     6.77    1.66      3.22     5.64     8.59     3.66     3.97     3.58
 5  2008     7.07    1.74      3.07     5.71     8.57     3.52     2.74     2.36
 6  2009     7.08    2.13      2.86     4.86     8.94     2.47     3.45     3.28
 7  2010     7.01    2.13      2.59     6.07     9.13     3.58     2.89     2.92
 8  2011     6.96    2.41      2.31     6.91     9.10     4.53     1.47     1.54
 9  2012     7.13    2.22      1.96     6.99     9.37     4.48     3.62     3.54
10  2016     6.82    2.13      2.58     6.41     8.81     4.13     3.41     3.11
# ℹ 19,320 more rows
# ℹ 21 more variables: ITEM8316 <dbl>, ITEM8906 <dbl>, ITEM8361 <dbl>,
#   ITEM15025 <dbl>, ITEM15061 <dbl>, ITEM15073 <dbl>, ITEM15156 <dbl>,
#   ITEM15173 <dbl>, ITEM7546 <fct>, ITEM9104 <dbl>, ITEM9304 <dbl>,
#   ITEM3998 <dbl>, ITEM18156 <dbl>, ITEM3995 <dbl>, ITEM2004 <dbl>,
#   ITEM3019 <dbl>, big4_auditor <fct>, leverage_ratio <dbl>,
#   total_capital_adequacy_ratio <dbl>, AAER <fct>, net_profit_margin <dbl>
…
